<svg width="48" height="51" viewBox="0 0 48 51" fill="none" xmlns="http://www.w3.org/2000/svg">
<path d="M45.2934 23.911C43.305 14.3595 40.3125 9.26146 35.8734 7.86892C34.9403 7.57811 33.9724 7.43283 33 7.43761C31.7146 7.43761 30.5953 7.77031 29.4112 8.12293C27.9843 8.54826 26.3634 9.03136 24 9.03136C21.6365 9.03136 20.0146 8.54926 18.585 8.12392C17.4 7.77031 16.2815 7.43761 15 7.43761C13.9944 7.43391 12.9933 7.57873 12.0253 7.86793C7.60964 9.25449 4.61901 14.3505 2.60151 23.905C0.432136 34.1867 1.49995 40.6783 5.59589 42.1844C6.15734 42.3946 6.74808 42.5031 7.34339 42.5051C10.1493 42.5051 12.3993 40.0218 13.9368 37.9888C15.674 35.6878 17.7075 34.5204 24 34.5204C29.6203 34.5204 31.9462 35.3302 33.9553 37.9888C35.2181 39.6603 36.4115 40.8297 37.6021 41.5658C39.1856 42.5439 40.7681 42.7611 42.3046 42.2003C44.7253 41.3227 46.1128 39.0028 46.4296 35.3033C46.6706 32.4665 46.2993 28.7401 45.2934 23.911ZM19.5 23.3751H16.5V26.5626C16.5 26.9853 16.3419 27.3907 16.0606 27.6896C15.7793 27.9885 15.3978 28.1564 15 28.1564C14.6021 28.1564 14.2206 27.9885 13.9393 27.6896C13.658 27.3907 13.5 26.9853 13.5 26.5626V23.3751H10.5C10.1021 23.3751 9.72059 23.2072 9.43929 22.9083C9.15799 22.6094 8.99995 22.2041 8.99995 21.7814C8.99995 21.3587 9.15799 20.9533 9.43929 20.6544C9.72059 20.3555 10.1021 20.1876 10.5 20.1876H13.5V17.0001C13.5 16.5774 13.658 16.1721 13.9393 15.8732C14.2206 15.5743 14.6021 15.4064 15 15.4064C15.3978 15.4064 15.7793 15.5743 16.0606 15.8732C16.3419 16.1721 16.5 16.5774 16.5 17.0001V20.1876H19.5C19.8978 20.1876 20.2793 20.3555 20.5606 20.6544C20.8419 20.9533 21 21.3587 21 21.7814C21 22.2041 20.8419 22.6094 20.5606 22.9083C20.2793 23.2072 19.8978 23.3751 19.5 23.3751ZM27.375 23.7736C27.0041 23.7736 26.6416 23.6567 26.3333 23.4378C26.0249 23.2189 25.7846 22.9078 25.6427 22.5437C25.5008 22.1797 25.4636 21.7792 25.536 21.3927C25.6083 21.0063 25.7869 20.6513 26.0491 20.3727C26.3113 20.0941 26.6454 19.9043 27.0092 19.8275C27.3729 19.7506 27.7499 19.79 28.0925 19.9408C28.4351 20.0916 28.7279 20.347 28.934 20.6746C29.14 21.0022 29.25 21.3873 29.25 21.7814C29.25 22.3097 29.0524 22.8164 28.7008 23.1901C28.3491 23.5637 27.8722 23.7736 27.375 23.7736ZM31.5 28.1564C31.1289 28.1564 30.7662 28.0394 30.4578 27.8203C30.1493 27.6011 29.909 27.2897 29.7672 26.9254C29.6255 26.5611 29.5886 26.1603 29.6613 25.7737C29.7341 25.3871 29.9131 25.0321 30.1758 24.7537C30.4385 24.4753 30.773 24.286 31.137 24.2097C31.5011 24.1334 31.8782 24.1735 32.2207 24.3251C32.5633 24.4766 32.8558 24.7327 33.0612 25.061C33.2667 25.3893 33.3759 25.7749 33.375 26.1692C33.3737 26.6967 33.1756 27.2021 32.8241 27.5746C32.4726 27.9472 31.9964 28.1564 31.5 28.1564ZM31.5 19.3907C31.1291 19.3907 30.7666 19.2739 30.4583 19.055C30.1499 18.8361 29.9096 18.525 29.7677 18.1609C29.6258 17.7969 29.5886 17.3963 29.661 17.0099C29.7333 16.6235 29.9119 16.2685 30.1741 15.9899C30.4364 15.7113 30.7704 15.5215 31.1342 15.4446C31.4979 15.3678 31.8749 15.4072 32.2175 15.558C32.5601 15.7088 32.8529 15.9641 33.059 16.2918C33.265 16.6194 33.375 17.0045 33.375 17.3986C33.375 17.9269 33.1774 18.4336 32.8258 18.8072C32.4741 19.1809 31.9972 19.3907 31.5 19.3907ZM35.625 23.7736C35.2541 23.7736 34.8916 23.6567 34.5833 23.4378C34.2749 23.2189 34.0346 22.9078 33.8927 22.5437C33.7508 22.1797 33.7136 21.7792 33.786 21.3927C33.8583 21.0063 34.0369 20.6513 34.2991 20.3727C34.5614 20.0941 34.8954 19.9043 35.2592 19.8275C35.6229 19.7506 35.9999 19.79 36.3425 19.9408C36.6851 20.0916 36.9779 20.347 37.184 20.6746C37.39 21.0022 37.5 21.3873 37.5 21.7814C37.5 22.3097 37.3024 22.8164 36.9508 23.1901C36.5992 23.5637 36.1222 23.7736 35.625 23.7736Z" fill="url(#paint0_linear_2_3)"/>
<defs>
<linearGradient id="paint0_linear_2_3" x1="18.4998" y1="4.25" x2="24.6929" y2="42.3929" gradientUnits="userSpaceOnUse">
<stop stop-color="#F15C3C"/>
<stop offset="0.796875" stop-color="#4825D2"/>
</linearGradient>
</defs>
</svg>
